{
    "uid": "IDF_Python_Advanced",
    "course": "IDF",
    "subject": "Python",
    "lesson": "Advanced",
    "units": [""],
    "software_ver": "3.x",
    "ksas": [
                51,
                52,
                54,
                55,
                92,
                94,
                100,
                215,
                1122,
                1128        
            ],
    "objectives": [""],
    "workrole": ["Basic Developer"],
    "proficiency": "3",
    "etc": 2,
    "creation_date": "",
    "revision_date": "",
    "release_ver": "",
    "labs": {
        "perf_lab": {
            "lab_path": "",
            "headerpath": "",
            "support_files": [""],
            "tests": [
                {
                    "filepath": "",
                    "headerpath": ""
                }
            ],
            "solution": "",
            "dependencies": {
                "libraries": [""],
                "req_software": [""]
            }
        },
        "demo_lab": {
            "lab_path": "",
            "headerpath": "",
            "support_files": [""],
            "solution": "",
            "dependencies": {
                "libraries": [""],
                "req_software": [""]
            }  
        }
    },
    "lesson_files": [""]
}
